{
    "/js/main.js": "/js/main.js",
    "/css/styles.css": "/css/styles.css",
    "/css/europe-styles.css": "/css/europe-styles.css",
    "/css/projects-openchain.css": "/css/projects-openchain.css"
}
